E2. Preparación y Modelado de los datos
…
Merchant

Para esta variable contamos con 693 niveles donde vemos que de cada una tienen una proporción grande de las personas que sufrieron fraude y de las que no.

DemographicDataQueries %>% count(merchant, sort = TRUE)

## # A tibble: 693 × 2
##    merchant                  n
##    <chr>                 <int>
##  1 fraud_Kilback LLC      6262
##  2 fraud_Cormier LLC      5246
##  3 fraud_Schumm PLC       5195
##  4 fraud_Kuhn LLC         5031
##  5 fraud_Boyer PLC        4999
##  6 fraud_Dickinson Ltd    4953
##  7 fraud_Emard Inc        3867
##  8 fraud_Cummerata-Jones  3860
##  9 fraud_Corwin-Collins   3853
## 10 fraud_Rodriguez Group  3843
## # … with 683 more rows

DemographicDataFraud %>% count(merchant, sort = TRUE)

## # A tibble: 685 × 2
##    merchant                 n
##    <chr>                <int>
##  1 fraud_Kilback LLC       62
##  2 fraud_Kozey-Boehm       60
##  3 fraud_Rau and Sons      60
##  4 fraud_Doyle Ltd         57
##  5 fraud_Terry-Huel        56
##  6 fraud_Boyer PLC         55
##  7 fraud_Kuhn LLC          55
##  8 fraud_Cormier LLC       53
##  9 fraud_Kiehn-Emmerich    53
## 10 fraud_Kuhic LLC         53
## # … with 675 more rows
…
